Project 2: Data Mining, Classification, Prediction
…
plant_data <- plant_data %>% na.omit
plant_data %>% summarize(n())

## # A tibble: 1 x 1
##   `n()`
##   <int>
## 1    78

Cluster Analysis

library(cluster)
clust_data <- plant_data %>% dplyr::select(2:32)
clust_data

## # A tibble: 78 x 31
##     pdias longindex durflow height begflow mycor vegaer vegsout autopoll insects
##     <dbl>     <dbl>   <dbl>  <dbl>   <dbl> <dbl>  <dbl>   <dbl>    <dbl>   <dbl>
##  1  96.8     0            2      7       5     2      0       0        0       4
##  2 111.      0            3      8       4     2      0       0        0       4
##  3   0.06    0.667        3      2       6     2      0       1        0       0
##  4   0.08    0.489        2      2       7     1      2       0        0       0
##  5   1.48    0.476        3      2       5     2      2       0        1       3
##  6   2.33    0.5          3      5       4     0      0       0        3       3
##  7   0.38    0.905        3      2       6     2      0       0        3       2
##  8   2.55    0.0667       3      2       3     2      0       2        1       3
##  9   1.48    0.211        3      3       7     2      0       0        0       3
## 10   0.52    0.370        3      2       4     2      0       0        2       0
## #  with 68 more rows, and 21 more variables: wind <dbl>, lign <dbl>,
## #   piq <dbl>, ros <dbl>, semiros <dbl>, leafy <dbl>, suman <dbl>, winan <dbl>,
## #   monocarp <dbl>, polycarp <dbl>, seasaes <dbl>, seashiv <dbl>,
## #   seasver <dbl>, everalw <dbl>, everparti <dbl>, elaio <dbl>, endozoo <dbl>,
## #   epizoo <dbl>, aquat <dbl>, windgl <dbl>, unsp <dbl>
…
